{
  "schemaVersion": 1,
  "id": "emc",
  "name": "EMC Framework",
  "description": "Provides an API for EMC with Fabric",
  "version": "2.0.0",
  "environment": "client",
  "authors": [
    "deftware"
  ],
  "contact": {
    "homepage": "https://emc-framework.gitlab.io/",
    "sources": "https://gitlab.com/EMC-Framework/EMC"
  },
  "license": "GPL-3.0",
  "custom": {
    "mm:early_risers": [
      "me.deftware.launch.EarlyRiser"
    ]
  }
}
